[
    {
        "id": 1,
        "title": "The Coconut Song",
        "artists": ["Smokey Mountain"]
    },
    {
        "id": 2,
        "title": "Tahu Sumedang",
        "artists": ["Jafunisun"]
    },
    {
        "id": 3,
        "title": "Agatha All Along",
        "artists": ["Kathryn Hahn", "Eric Bradley", "Greg Whipple", "Jasper Randall", "Gerald White"]
    }
]